Understand and explore priors • learnB4SS
…
Normal/Gaussian

Let’s start off with an outcome variable distributed according to a
normal/Gaussian distribution.

In fact, we hardly ever work with truly normally distributed
variables. So for this example we will look at a data set of lexical
emotional valence.

emotion
#> # A tibble: 1,000 × 2
#>    word         valence
#>    <chr>          <dbl>
#>  1 classroom      0.57 
#>  2 worker         0.95 
#>  3 climb          0.62 
#>  4 photographer   1.71 
#>  5 downward      -1    
#>  6 loose         -0.480
#>  7 scanner        0.57 
#>  8 kooky          1.42 
#>  9 credence       0.79 
#> 10 fog            0.770
#> # ℹ 990 more rows
…
