Fully worked-out analysis using a Bayesian regression with brms • learnB4SS
…
Get priors

# get_prior(m1_bf, data = incomplete)
get_prior(m1_bf, data = incomplete) %>%
  as_tibble() %>%
  select(prior:group)
#> # A tibble: 25 × 4
#>    prior                  class     coef                                   group
#>    <chr>                  <chr>     <chr>                                  <chr>
#>  1 ""                     b         ""                                     ""   
#>  2 ""                     b         "correct_voicingvoiceless"             ""   
#>  3 ""                     b         "correct_voicingvoiceless:repetitiont… ""   
#>  4 ""                     b         "repetitiontyperepeated"               ""   
#>  5 "lkj(1)"               cor       ""                                     ""   
#>  6 ""                     cor       ""                                     "ite…
#>  7 ""                     cor       ""                                     "lis…
#>  8 ""                     cor       ""                                     "spe…
#>  9 "student_t(3, 0, 2.5)" Intercept ""                                     ""   
#> 10 "student_t(3, 0, 2.5)" sd        ""                                     ""   
#> # ℹ 15 more rows
…
